<?xml version="1.0" standalone="no"?>
<svg version="1.1" xmlns="http://www.w3.org/2000/svg" xmlns:xlink="http://www.w3.org/1999/xlink" xmlns:ev="http://www.w3.org/2001/xml-events">

<g transform="translate(36,36)">
  <g stroke="#E0E0E0" stroke-width="1.2" fill="#fff">
    <path d="M31.4,12.4v-25q-1,-7 -11,-8q0.0,-8 -4.4,-8.4q-4.6,-0.6 -9,-0.6q-4.6,0.0 -7,0.4q-2.4,0.4 -3.6,1.6q-1.4,1.2 -1.6,3.6q-0.2,2.4 -1.2,3.2q-1,1 -2.6,1q-1.6,0.2 -3,-1.2q-1.6,-1.6 -3.8,-1.4q-2.4,0.0 -3.8,0.8q-1.4,0.8 -2,2q-0.6,1.2 -2,2q-1.4,0.8 -6,1q-3,1 -3.4,3q-0.6,2 -0.6,29q1,7 9,7h46q10,-1 10,-10M6,-18.6q7.6,0.0 13,5.4q5.4,5.4 5.4,13.2q0.0,7.6 -5.4,13q-5.4,5.4 -13,5.4q-7.8,0.0 -13.2,-5.4q-5.4,-5.4 -5.4,-13q0.0,-7.8 5.4,-13.2q5.4,-5.4 13.2,-5.4M-24,-16.6q1.8,0.0 3,1q1.4,1 1.4,2.6q0.0,1.4 -1.4,2.4q-1.2,1 -3,1q-2,0.0 -3.2,-1q-1.4,-1 -1.4,-2.4q0.0,-1.6 1.4,-2.6q1.2,-1 3.2,-1" />
  </g>
  <g stroke="#E0E0E0" stroke-width="1.2" fill="#fff">
    <path d="M6,-13.6q5.4,0.0 9.4,4q4,4 4,9.6q0.0,5.4 -4,9.4q-4,4 -9.4,4q-5.6,0.0 -9.6,-4q-4,-4 -4,-9.4q0.0,-5.6 4,-9.6q4,-4 9.6,-4" />
  </g>
</g>

</svg>